…
``` r
# change names to proper format
baby_names_data$childs_first_name = toTitleCase(tolower(baby_names_data$childs_first_name))

# change ethnicity to proper format
baby_names_data$ethnicity = str_replace_all(baby_names_data$ethnicity, "PACI$", "PACIFIC ISLANDER")
baby_names_data$ethnicity = str_replace_all(baby_names_data$ethnicity, "HISP$", "HISPANIC")
baby_names_data$ethnicity = toTitleCase(tolower(baby_names_data$ethnicity))

# remove duplicate rows
distinct(baby_names_data)                                                   
```

    ## # A tibble: 12,181 x 6
    ##    year_of_birth gender ethnicity              childs_first_na… count  rank
    ##            <dbl> <chr>  <chr>                  <chr>            <dbl> <dbl>
    ##  1          2016 Female Asian and Pacific Isl… Olivia             172     1
    ##  2          2016 Female Asian and Pacific Isl… Chloe              112     2
    ##  3          2016 Female Asian and Pacific Isl… Sophia             104     3
    ##  4          2016 Female Asian and Pacific Isl… Emily               99     4
    ##  5          2016 Female Asian and Pacific Isl… Emma                99     4
    ##  6          2016 Female Asian and Pacific Isl… Mia                 79     5
    ##  7          2016 Female Asian and Pacific Isl… Charlotte           59     6
    ##  8          2016 Female Asian and Pacific Isl… Sarah               57     7
    ##  9          2016 Female Asian and Pacific Isl… Isabella            56     8
    ## 10          2016 Female Asian and Pacific Isl… Hannah              56     8
    ## # … with 12,171 more rows
…
